Burlington Fire Department Incidents & Response Times, 2018 - 2019
…
knitr::opts_chunk$set(echo = TRUE)

# Loading of packages we will use for our project
library(tidyverse)
library(lubridate)
library(leaflet)
library(gridExtra)

# Loading of the data frame fire to use
fire <- read.csv("O_fire_new.csv", na.strings = '', stringsAsFactors = TRUE)

# Result summaries of our data
tibble(fire)

## # A tibble: 10,954 x 14
##    District      Unit  Inci_no  incid_descrip Alm_d..m Disp_d....m No..if_d....m
##    <fct>         <fct> <fct>    <fct>         <fct>    <fct>       <fct>        
##  1 New North End A2    19-0002~ EMS call      5/3/19 ~ 5/3/19 17:~ 5/3/19 17:15 
##  2 New North End A2    19-0002~ EMS call      5/9/19 ~ 5/9/19 6:45 5/9/19 6:47  
##  3 New North End A2    19-0002~ EMS call      5/9/19 ~ 5/9/19 10:~ 5/9/19 10:36 
##  4 Hill Section  A1    18-0005~ EMS call      9/16/18~ 9/16/18 16~ 9/16/18 16:42
##  5 SB            A1    18-0005~ EMS call      9/12/18~ 9/12/18 9:~ 9/12/18 9:14 
##  6 Downtown      R1    19-0006~ EMS call      10/24/1~ 10/24/19 9~ 10/24/19 9:41
##  7 Hill Section  R1    19-0006~ Smoke scare,~ 10/24/1~ 10/24/19 1~ 10/24/19 11:~
##  8 Hill Section  R1    19-0007~ Alarm system~ 11/13/1~ 11/13/19 1~ 11/13/19 13:~
##  9 Downtown      R1    19-0007~ Assist inval~ 11/26/1~ 11/26/19 2~ 11/26/19 21:~
## 10 Downtown      R1    19-0006~ EMS call      10/14/1~ 10/14/19 1~ 10/14/19 10:~
## # ... with 10,944 more rows, and 7 more variables: Roll_d....m <fct>,
## #   Arv_d....m <fct>, In_d....m <fct>, City <fct>, Zip <int>, Shift <fct>,
## #   geopoint <fct>
…
#  Using leaflet, make a map showing circles on the location of each incident.  Start here:
m <- leaflet() %>%
  addTiles() %>%
  setView(lat = 44.475, lng = -73.212, zoom = 12)

#  (Once you get the leaflet plot working, remove the scatterplot of Longitude by Latitude)
m  %>% addCircles(lng = fire$Long, lat = fire$Lat)

Amount of times a Unit responds to call

f2 <- fire %>% group_by(Unit) %>% summarize(count = n()) %>% arrange(desc(count)) %>% select(Unit = Unit, count = count)
f2

## # A tibble: 37 x 2
##    Unit  count
##    <fct> <int>
##  1 E1     2200
##  2 E3     1434
##  3 T1     1127
##  4 L4     1118
##  5 L2     1072
##  6 A2      971
##  7 E5      690
##  8 A1      631
##  9 E6      532
## 10 BATT1   388
## # ... with 27 more rows
…
